%,0,0,0,0
10,0,0,0,0
1984,0,0,0,0
2yil,3,0,0,0
3head,4,1,0,0
50,0,0,0,0
5head,4,1,0,0
8ball,4,0,0,0
_,0,0,0,0
aaaa,4,1,0,0
ableist,7,1,0,0
accountage,10,1,0,0
addcmd,6,1,0,0
adin,4,1,0,0
ahmet,5,1,0,0
aiden,5,1,0,0
alienpls,8,1,0,0
alienpls4,8,1,0,0
amab,4,2,0,0
amazefulbot2,11,2,0,0
amongus1,7,3,0,0
amongus2,7,3,0,0
amongus3,7,3,0,0
amongus4,7,3,0,0
amongus5,7,3,0,0
amongus6,7,3,0,0
amongus7,7,3,0,0
ana,3,1,0,0
anarchy,7,1,0,0
arctic,6,2,0,0
ariaana,7,2,0,0
ariaanabatmen,13,2,0,0
armaan,6,2,0,0
asaiie,6,1,0,0
asaiie10,6,1,0,0
asaiie2,6,1,0,0
asaiie3,6,1,0,0
asaiie4,6,1,0,0
asaiie5,6,1,0,0
asaiie6,6,1,0,0
asaiie7,6,1,0,0
asaiie9,6,1,0,0
asd,3,1,0,0
asmr,4,1,0,0
aussy,5,1,0,0
austin,6,1,0,0
austin2,6,1,0,0
austin3,6,1,0,0
austin5,6,1,0,0
avemaria,8,1,0,0
ayaya,5,1,0,0
azan,4,1,0,0
baka,4,0,0,0
balcony,7,0,0,0
ban,3,0,0,0
barbz,5,0,0,0
baron,5,0,0,0
baseball,8,0,0,0
based,5,0,0,0
based2,5,0,0,0
based3,5,0,0,0
basedlake,9,0,0,0
batmmanuel,10,0,0,0
beach,5,0,0,0
bebedab,7,0,0,0
beg,3,0,0,0
belgium,7,0,0,0
bestcolor,9,0,0,0
betel,5,0,0,0
betel2,5,0,0,0
betel3,5,0,0,0
betel4,5,0,0,0
betvalid,8,0,0,0
bi,2,0,0,0
birdge,6,0,0,0
birdge2,6,0,0,0
birthday,8,0,0,0
bison,5,0,0,0
blaise,6,0,0,0
blaise1,6,0,0,0
blaise10,6,0,0,0
blaise11,6,0,0,0
blaise12,6,0,0,0
blaise13,6,0,0,0
blaise2,6,0,0,0
blaise3,6,0,0,0
blaise4,6,0,0,0
blaise5,6,0,0,0
blaise6,6,0,0,0
blaise7,6,0,0,0
blaise8,6,0,0,0
blaise9,6,0,0,0
block,5,0,0,0
booba,5,0,0,0
boobies,7,0,0,0
booly,5,0,0,0
booly2,5,0,0,0
bored,5,0,0,0
boring,6,0,0,0
bouldy,6,0,0,0
boxes,5,0,0,0
boxes1,5,0,0,0
boxes2,5,0,0,0
boxing,6,0,0,0
bruvs,5,0,0,0
bts,3,0,0,0
bttv,4,0,0,0
bttvemotes,10,0,0,0
buff,4,0,0,0
bussy,5,0,0,0
butt,4,0,0,0
bye,3,0,0,0
bytesized,9,0,0,0
chain,5,0,0,0
char,4,0,0,0
charles,7,0,0,0
charlinho,9,0,0,0
chat,4,0,0,0
chatguessr,10,0,0,0
chicken2,7,0,0,0
china,5,0,0,0
chips,5,0,0,0
chode,5,0,0,0
chomsky,7,0,0,0
circle,6,0,0,0
civ,3,0,0,0
civgame,7,0,0,0
civplayers,10,0,0,0
clean,5,0,0,0
clear1,5,0,0,0
clearnuke,9,0,0,0
clique,6,0,0,0
clown,5,0,0,0
clownblaq,9,0,0,0
clownblaq2,9,0,0,0
cmac,4,0,0,0
cmac2,4,0,0,0
cmac3,4,0,0,0
cmac4,4,0,0,0
cmac5,4,0,0,0
cmd,3,0,0,0
cock,4,0,0,0
cockroll,8,0,0,0
commands,8,0,0,0
coom,4,0,0,0
coomer,6,0,0,0
cooming,7,0,0,0
coooming,8,0,0,0
copypastas,10,0,0,0
cozy,4,0,0,0
crisps,6,0,0,0
cristine,8,0,0,0
cum,3,0,0,0
cummies,7,0,0,0
cussy,5,0,0,0
cussy2,5,0,0,0
cute,4,0,0,0
cyro,4,0,0,0
cyro10,4,0,0,0
cyro11,4,0,0,0
cyro12,4,0,0,0
cyro13,4,0,0,0
cyro14,4,0,0,0
cyro15,4,0,0,0
cyro16,4,0,0,0
cyro17,4,0,0,0
cyro18,4,0,0,0
cyro19,4,0,0,0
cyro2,4,0,0,0
cyro20,4,0,0,0
cyro21,4,0,0,0
cyro3,4,0,0,0
cyro4,4,0,0,0
cyro5,4,0,0,0
cyro6,4,0,0,0
cyro7,4,0,0,0
cyro8,4,0,0,0
cyro9,4,0,0,0
cοck,3,0,0,0
cоck,3,0,0,0
dankkek,7,0,0,0
dapman,6,0,0,0
dark,4,0,0,0
dark1,4,0,0,0
dark10,4,0,0,0
dark11,4,0,0,0
dark12,4,0,0,0
dark13,4,0,0,0
dark14,4,0,0,0
dark15,4,0,0,0
dark16,4,0,0,0
dark17,4,0,0,0
dark18,4,0,0,0
dark19,4,0,0,0
dark2,4,0,0,0
dark20,4,0,0,0
dark21,4,0,0,0
dark22,4,0,0,0
dark23,4,0,0,0
dark24,4,0,0,0
dark25,4,0,0,0
dark26,4,0,0,0
dark27,4,0,0,0
dark28,4,0,0,0
dark29,4,0,0,0
dark3,4,0,0,0
dark4,4,0,0,0
dark5,4,0,0,0
dark6,4,0,0,0
dark7,4,0,0,0
dark8,4,0,0,0
dark9,4,0,0,0
darkcommand,11,0,0,0
darkcount,9,0,0,0
darkracistcount,15,0,0,0
date,4,0,0,0
dbz,3,0,0,0
dead,4,0,0,0
deadrose,8,0,0,0
death,5,0,0,0
deepocean,9,0,0,0
delaney,7,0,0,0
delcmd,6,0,0,0
desert,6,0,0,0
deth,4,0,0,0
devlin,6,0,0,0
devlin2,6,0,0,0
devlin3,6,0,0,0
devlin4,6,0,0,0
died,4,0,0,0
dinkdonk,8,0,0,0
discord,7,0,0,0
discord2,7,0,0,0
donnie,6,0,0,0
donotcum,8,0,0,0
dream,5,0,0,0
dream2,5,0,0,0
dreamwastaken,13,0,0,0
dualipa,7,0,0,0
duel,4,0,0,0
dumbamericans,13,0,0,0
durham,6,0,0,0
eating,6,0,0,0
editcmd,7,0,0,0
eliminate,9,0,0,0
elliot,6,0,0,0
elmo,4,0,0,0
elmo1,4,0,0,0
elmo2,4,0,0,0
elmo3,4,0,0,0
elmo4,4,0,0,0
elmo5,4,0,0,0
elmo6,4,0,0,0
elmo7,4,0,0,0
elvout,6,0,0,0
emotecredit,11,0,0,0
emotes,6,0,0,0
england,7,0,0,0
englandcount,12,0,0,0
enjoyed,7,0,0,0
essays,6,0,0,0
eval,4,0,0,0
exposed,7,0,0,0
ez,2,0,0,0
facism3,6,0,0,0
fairyforest,11,0,0,0
fancy,5,0,0,0
fanfic,6,0,0,0
fart,4,0,0,0
fartyboy,8,0,0,0
fascism,7,0,0,0
fascism2,7,0,0,0
feelsweakman,12,0,0,0
fight,5,0,0,0
fightblaise,11,0,0,0
fightscb,8,0,0,0
filesay,7,0,0,0
flags,5,0,0,0
flip,4,0,0,0
followage,9,0,0,0
forest,6,0,0,0
fossa,5,0,0,0
fossa2,5,0,0,0
fossabot,8,0,0,0
fossaunless,11,0,0,0
fruit,5,0,0,0
game,4,0,0,0
garden,6,0,0,0
garden2,6,0,0,0
gasm,4,0,0,0
gaur3,4,0,0,0
genesis1,7,0,0,0
geoguessr,9,0,0,0
geolink,7,0,0,0
geostats,8,0,0,0
gg,2,0,0,0
giraffe,7,0,0,0
glad,4,0,0,0
gladge,6,0,0,0
goodmorning,11,0,0,0
goodnight,9,0,0,0
gray,4,0,0,0
greece,6,0,0,0
greek,5,0,0,0
grffn,5,0,0,0
grfn,4,0,0,0
grfnn,5,0,0,0
grfnn10,5,0,0,0
grfnn11,5,0,0,0
grfnn12,5,0,0,0
grfnn13,5,0,0,0
grfnn13grfnn,10,0,0,0
grfnn14,5,0,0,0
grfnn15,5,0,0,0
grfnn16,5,0,0,0
grfnn17,5,0,0,0
grfnn18,5,0,0,0
grfnn19,5,0,0,0
grfnn2,5,0,0,0
grfnn20,5,0,0,0
grfnn21,5,0,0,0
grfnn22,5,0,0,0
grfnn23,5,0,0,0
grfnn25,5,0,0,0
grfnn26,5,0,0,0
grfnn27,5,0,0,0
grfnn3,5,0,0,0
grfnn4,5,0,0,0
grfnn5,5,0,0,0
grfnn6,5,0,0,0
grfnn7,5,0,0,0
grfnn8,5,0,0,0
grfnn9,5,0,0,0
grfnndinnkdonk,14,0,0,0
grouphug,8,0,0,0
grouphug2,8,0,0,0
gttc,4,0,0,0
gupda,5,0,0,0
gupta,5,0,0,0
hahaa,5,1,0,0
happy,5,1,0,0
harry,5,1,0,0
harry2,5,1,0,0
harry3,5,1,0,0
harrypotter,11,1,0,0
hasan,5,1,0,0
hasan10,5,1,0,0
hasan11,5,1,0,0
hasan2,5,1,0,0
hasan3,5,1,0,0
hasan4,5,1,0,0
hasan5,5,1,0,0
hasan6,5,1,0,0
hasan7,5,1,0,0
hasan8,5,1,0,0
hasan9,5,1,0,0
hasanabi,8,1,0,0
hasanabi2,8,1,0,0
hasanslurstreak,15,1,0,0
hascord,7,1,0,0
hasl,4,1,0,0
hasviewer,9,1,0,0
hatch,5,1,0,0
hbd,3,1,0,0
hbdsaca,7,1,0,0
heart,5,1,0,0
heiio,5,1,0,0
hell,4,1,0,0
hello,5,1,0,0
hi,2,1,0,0
himbos,6,1,0,0
himbos2,6,1,0,0
himboscope,10,1,0,0
hmm,3,1,0,0
home,4,1,0,0
home2,4,1,0,0
homey,5,1,0,0
homey1,5,1,0,0
horny,5,1,0,0
host,4,1,0,0
hottub,6,1,0,0
hug,3,1,0,0
huggies,7,1,0,0
hugo,4,1,0,0
hugo2,4,1,0,0
hugs,4,1,0,0
hydrate,7,1,0,0
hyperhogger,11,1,0,0
iceberg,7,0,0,0
idontsublekw,12,0,0,0
imbored,7,0,0,0
imoldgreg702,9,0,0,0
impregnate,10,0,0,0
impregnate2,10,0,0,0
imsorry,7,0,0,0
imverybored,11,0,0,0
italians,8,0,0,0
italy,5,0,0,0
itscominghome,13,0,0,0
jaad,4,0,0,0
jaad__,4,0,0,0
jad,3,0,0,0
jad2,3,0,0,0
jad3,3,0,0,0
jad4,3,0,0,0
jad5,3,0,0,0
jad6,3,0,0,0
jad69,3,0,0,0
jad7,3,0,0,0
jad8,3,0,0,0
jad9,3,0,0,0
jadd,4,0,0,0
jcs,3,0,0,0
joebiden,8,0,0,0
joke,4,0,0,0
joy,3,0,0,0
juicer,6,0,0,0
juke,4,0,0,0
juke2,4,0,0,0
juke3,4,0,0,0
julyfirst,9,0,0,0
jungle,6,0,0,0
justlane,8,0,0,0
justlane10,8,0,0,0
justlane11,8,0,0,0
justlane12,8,0,0,0
justlane13,8,0,0,0
justlane14,8,0,0,0
justlane2,8,0,0,0
justlane3,8,0,0,0
justlane4,8,0,0,0
justlane5,8,0,0,0
justlane6,8,0,0,0
justlane7,8,0,0,0
justlane8,8,0,0,0
justlane9,8,0,0,0
kal,3,2,1,0
kal_ed,5,2,1,0
kamzatic,8,2,1,0
kansas,6,2,1,0
kansascount,11,2,1,0
kappa,5,2,1,0
kara1,4,4,1,1
kara2,4,4,1,1
kara3,4,4,1,1
kazmatic,8,2,1,0
kazmatic2,8,2,1,0
kazmatic3,8,2,1,0
kekvv,5,1,1,0
kekw,4,1,1,0
kekwait,7,1,1,0
kekwiggle,9,1,1,0
kenya,5,1,1,0
krish,5,1,1,0
krish2,5,1,1,0
krish3,5,1,1,0
krish4,5,1,1,0
krish5,5,1,1,0
krish6,5,1,1,0
krish7,5,1,1,0
kuroshi,7,1,1,0
kuroshi2,7,1,1,0
kuroshi3,7,1,1,0
kuroshi4,7,1,1,0
kuroshi5,7,1,1,0
l,1,0,0,0
lagoon,6,0,0,0
lake,4,0,0,0
lake2,4,0,0,0
lake3,4,0,0,0
lake4,4,0,0,0
lake5,4,0,0,0
lake6,4,0,0,0
lake7,4,0,0,0
lanerecipe,10,0,0,0
lekw,4,0,0,0
lekwping,8,0,0,0
liar,4,0,0,0
lib,3,0,0,0
light,5,0,0,0
lightmode,9,0,0,0
lilkrish,8,0,0,0
locations,9,0,0,0
loser,5,0,0,0
lulw,4,0,0,0
mags,4,1,0,0
mahan1,5,1,0,0
mahan2,5,1,0,0
mahan3,5,1,0,0
mahan4,5,1,0,0
mahan5,5,1,0,0
mahan50001,5,1,0,0
mahan6,5,1,0,0
mahan7,5,1,0,0
mahan8,5,1,0,0
mahandonowall,13,1,0,0
mahaniftheresone,16,1,0,0
meadow,6,1,0,0
meat,4,1,0,0
meds,4,1,0,0
milf,4,1,0,0
minor,5,1,0,0
mods,4,2,0,0
mogus,5,2,0,0
mom,3,2,0,0
mommy,5,2,0,0
mοds,3,1,0,0
na,2,0,0,0
nackolus,8,0,0,0
nam,3,0,0,0
nat,3,0,0,0
nat2,3,0,0,0
neto,4,0,0,0
nice,4,0,0,0
night-night,10,0,0,0
nodders,7,0,0,0
nodders2,7,0,0,0
nuke,4,0,0,0
nuke2,4,0,0,0
nyaa,4,0,0,0
nyaa2,4,0,0,0
nyramid,7,0,0,0
ocean,5,1,0,0
oceanman,8,1,0,0
offlinechat,11,1,0,0
offlinediscord,14,1,0,0
offliner,8,1,0,0
offliner2,8,1,0,0
offliner3,8,1,0,0
offlinerdiscord,15,1,0,0
offlinerpurge,13,1,0,0
offliners,9,1,0,0
offlineslander,14,1,0,0
offlineslander2,14,1,0,0
offlineslander3,14,1,0,0
offlinestatus,13,1,0,0
ohayo,5,1,0,0
onliner,7,1,0,0
openingjuke,11,1,0,0
openingjuke2,11,1,0,0
openingjukesmom,15,1,0,0
ouranwatchers,13,1,0,0
paaaul,6,0,0,0
pablo,5,0,0,0
pablo1,5,0,0,0
pablo2,5,0,0,0
pablo3,5,0,0,0
pablo4,5,0,0,0
pablo5,5,0,0,0
pablo6,5,0,0,0
pablo7,5,0,0,0
pablo8,5,0,0,0
pablo9,5,0,0,0
pabloban,8,0,0,0
pag,3,0,0,0
pain,4,0,0,0
pastas,6,0,0,0
pausechamp,10,0,0,0
peepoclap,9,0,0,0
peepod,6,0,0,0
peepot,6,0,0,0
peezy,5,0,0,0
peezy2,5,0,0,0
penaldo,7,0,0,0
peped,5,0,0,0
pepela,6,0,0,0
peteeer,7,0,0,0
peter,5,0,0,0
phunk,5,0,0,0
phunk1,5,0,0,0
phys,4,0,0,0
physiology,10,0,0,0
physs,5,0,0,0
physss,6,0,0,0
physsss,7,0,0,0
pileofmags,10,0,0,0
pileofmags2,10,0,0,0
pileofmags3,10,0,0,0
pileofmags4,10,0,0,0
pileofmags5,10,0,0,0
pileofmags6,10,0,0,0
pileofmags7,10,0,0,0
ping,4,0,0,0
pingcmds,8,0,0,0
pinguser,8,0,0,0
pledge,6,0,0,0
plsowo,6,0,0,0
plsrob,6,0,0,0
pobox,5,0,0,0
pog,3,0,0,0
poggers,7,0,0,0
poki,4,0,0,0
pokif,5,0,0,0
politics,8,0,0,0
poo,3,0,0,0
poop,4,0,0,0
poopie,6,0,0,0
poopies,7,0,0,0
poopy,5,0,0,0
poot,4,0,0,0
pooters,7,0,0,0
pp,2,0,0,0
praying,7,0,0,0
president,9,0,0,0
pride,5,0,0,0
proob,5,0,0,0
proob2,5,0,0,0
proob3,5,0,0,0
proob4,5,0,0,0
proob5,5,0,0,0
pungent,7,0,0,0
punish,6,0,0,0
purge,5,0,0,0
purge2,5,0,0,0
pyramid,7,0,0,0
pyramod,7,0,0,0
q,1,0,0,0
query,5,0,0,0
queue,5,0,0,0
racist,6,2,0,0
racist2,6,2,0,0
racists,7,2,0,0
radlib,6,2,0,0
raid,4,2,0,0
rainbow,7,2,0,0
rainbow2,7,2,0,0
rainbowping,11,2,0,0
random,6,2,0,0
reefer''dsf,9,1,0,0
remy,4,1,0,0
remy2,4,1,0,0
remy3,4,1,0,0
resurrect,9,1,0,0
ritual,6,1,0,0
rndoffliner,11,1,0,0
rndping,7,1,0,0
rndping2,7,1,0,0
rndpіng,6,1,0,0
rnduser,7,1,0,0
rob,3,1,0,0
roll,4,1,0,0
rose1,4,1,0,0
rose10,4,1,0,0
rose11,4,1,0,0
rose12,4,1,0,0
rose13,4,1,0,0
rose14,4,1,0,0
rose15,4,1,0,0
rose16,4,1,0,0
rose17,4,1,0,0
rose18,4,1,0,0
rose19,4,1,0,0
rose2,4,1,0,0
rose20,4,1,0,0
rose3,4,1,0,0
rose4,4,1,0,0
rose5,4,1,0,0
rose6,4,1,0,0
rose7,4,1,0,0
rose8,4,1,0,0
rose9,4,1,0,0
roserecipe,10,1,0,0
roulette,8,1,0,0
rp,2,1,0,0
rroulette,9,1,0,0
rules,5,1,0,0
rοll,3,1,0,0
saca,4,0,0,0
saca2,4,0,0,0
saca3,4,0,0,0
sacacock,8,0,0,0
sacajoke,8,0,0,0
sacal,5,0,0,0
sacamod,7,0,0,0
sacapoki,8,0,0,0
sacaraid,8,0,0,0
sacaraid2,8,0,0,0
sacasong,8,0,0,0
sacastare,9,0,0,0
sacasub,7,0,0,0
saj,3,0,0,0
saka,4,0,0,0
saka2,4,0,0,0
sashimi,7,0,0,0
sax,3,0,0,0
saxsta,6,0,0,0
say,3,0,0,0
scb,3,0,0,0
scb10,3,0,0,0
scb11,3,0,0,0
scb12,3,0,0,0
scb13,3,0,0,0
scb14,3,0,0,0
scb15,3,0,0,0
scb2,3,0,0,0
scb3,3,0,0,0
scb4,3,0,0,0
scb5,3,0,0,0
scb6,3,0,0,0
scb7,3,0,0,0
scb8,3,0,0,0
scb9,3,0,0,0
scbshallpeezysenpai,19,0,0,0
schmoopsie,10,0,0,0
school,6,0,0,0
score,5,0,0,0
scramble,8,0,0,0
secks,5,0,0,0
secks2,5,0,0,0
senpai,6,0,0,0
senpaisauce,11,0,0,0
setgame,7,0,0,0
settitle,8,0,0,0
sex,3,0,0,0
shadow,6,0,0,0
shall,5,0,0,0
shall0,5,0,0,0
shall452,5,0,0,0
shalllax,8,0,0,0
shidded,7,0,0,0
shrek,5,0,0,0
shrug,5,0,0,0
simpfrompa,10,0,0,0
sky,3,0,0,0
slatt,5,0,0,0
smile,5,0,0,0
so,2,0,0,0
soap,4,0,0,0
socialism,9,0,0,0
society,7,0,0,0
soda,4,0,0,0
space,5,0,0,0
spam,4,0,0,0
spank,5,0,0,0
spankies,8,0,0,0
spectrum,8,0,0,0
spin,4,0,0,0
spork,5,0,0,0
spork2,5,0,0,0
spork3,5,0,0,0
sporkpenguin,12,0,0,0
square,6,0,0,0
stalk,5,0,0,0
stardewplayers,14,0,0,0
stats,5,0,0,0
steppe,6,0,0,0
stgboris,8,0,0,0
stopbeingmean,13,0,0,0
streamer,8,0,0,0
stupidcommand,13,0,0,0
subage,6,0,0,0
subbadges,9,0,0,0
subcount,8,0,0,0
subnautic,9,0,0,0
subnautica,10,0,0,0
subs,4,0,0,0
sun2,3,0,0,0
sunflower,9,0,0,0
sunflower10,9,0,0,0
sunflower11,9,0,0,0
sunflower2,9,0,0,0
sunflower3,9,0,0,0
sunflower4,9,0,0,0
sunflower5,9,0,0,0
sunflower6,9,0,0,0
sunflower7,9,0,0,0
sunflower8,9,0,0,0
sunflower9,9,0,0,0
supertyp,8,0,0,0
sus,3,0,0,0
sussy,5,0,0,0
swooner,7,0,0,0
syndie,6,0,0,0
taken,5,1,0,0
taken1,5,1,0,0
taken10,5,1,0,0
taken2,5,1,0,0
taken3,5,1,0,0
taken4,5,1,0,0
taken5,5,1,0,0
taken6,5,1,0,0
taken7,5,1,0,0
taken8,5,1,0,0
taken9,5,1,0,0
taken9\,5,1,0,0
takenbacons,11,1,0,0
takes,5,1,0,0
talk,4,1,0,0
talktogrf,9,1,0,0
tanner,6,1,0,0
tanner10,6,1,0,0
tanner11,6,1,0,0
tanner12,6,1,0,0
tanner13,6,1,0,0
tanner14,6,1,0,0
tanner15,6,1,0,0
tanner16,6,1,0,0
tanner17,6,1,0,0
tanner18,6,1,0,0
tanner18tanner,12,1,0,0
tanner19,6,1,0,0
tanner2,6,1,0,0
tanner20,6,1,0,0
tanner21,6,1,0,0
tanner3,6,1,0,0
tanner4,6,1,0,0
tanner5,6,1,0,0
tanner6,6,1,0,0
tanner7,6,1,0,0
tanner8,6,1,0,0
tanner9,6,1,0,0
temp,4,1,0,0
test,4,1,0,0
thebtgquillsmom,15,2,0,0
thehood,7,2,0,0
theletteree,11,2,0,0
theletteree2,11,2,0,0
theletteree3,11,2,0,0
theletteree4,11,2,0,0
theletteree69420,11,2,0,0
thembos,7,2,0,0
thewickedalien1,14,2,0,0
thewickedalien2,14,2,0,0
thewickedalien3,14,2,0,0
thewickedalien4,14,2,0,0
thewickedalien5,14,2,0,0
thewickedalien6,14,2,0,0
time,4,1,0,0
timeout,7,1,0,0
timeoutpg,9,1,0,0
title,5,1,0,0
titties,7,1,0,0
titty,5,1,0,0
tj,2,1,0,0
tj2,2,1,0,0
tjdeath,7,1,0,0
tjstop,6,1,0,0
tjsux,5,1,0,0
tlb,3,1,0,0
tom,3,1,0,0
tom2,3,1,0,0
tom3,3,1,0,0
tomthecatman,12,1,0,0
traffic,7,1,0,0
trivia,6,1,0,0
triviafrogs,11,1,0,0
trolling,8,1,0,0
trump,5,1,0,0
trump2,5,1,0,0
ttours,6,1,0,0
tunisia,7,1,0,0
turk,4,1,0,0
turkey,6,1,0,0
turkvarmi,9,1,0,0
turtledoves,11,1,0,0
turtledoves2,11,1,0,0
turtledoves3,11,1,0,0
tweet,5,1,0,0
typers,6,1,0,0
typingleaderboard,17,1,0,0
uban,4,0,0,0
ubanshall,9,0,0,0
ubdeed,6,0,0,0
uk,2,0,0,0
ultra,5,0,0,0
ultra4,5,0,0,0
ultra5,5,0,0,0
ultra6,5,0,0,0
ultrapg,7,0,0,0
ultrapg2,7,0,0,0
ultrapg3,7,0,0,0
ultraweeb,9,0,0,0
unban,5,0,0,0
unbangrfnn,10,0,0,0
unbanshall,10,0,0,0
unmodamazefulbot,16,0,0,0
unmodjaad,9,0,0,0
upvote,6,0,0,0
uwu,3,0,0,0
vanish,6,0,0,0
vb,2,0,0,0
verypogg,8,0,0,0
vidroulette,11,0,0,0
vip,3,0,0,0
vonish,6,0,0,0
w,1,0,0,0
waffle,6,0,0,0
waffle2,6,0,0,0
waffle3,6,0,0,0
wakeup,6,0,0,0
weather,7,0,0,0
weebs,5,0,0,0
weezer,6,0,0,0
whattime,8,0,0,0
whattime2,8,0,0,0
whereami,8,0,0,0
wicked,6,0,0,0
wicked2,6,0,0,0
wicked3,6,0,0,0
wigan,5,0,0,0
wins,4,0,0,0
women,5,0,0,0
wow,3,0,0,0
wynston,7,0,0,0
wynstonwithanal,15,0,0,0
xqc,3,0,0,0
xqcl,4,0,0,0
xqcow,5,0,0,0
yikes,5,0,0,0
youngpeezy,10,0,0,0
yourmom,7,0,0,0
yung_leandoer,12,0,0,0
yuqs,4,0,0,0
yuqs2,4,0,0,0
zach,4,0,0,0
zach2,4,0,0,0
zaratti,7,0,0,0
zaratti2,7,0,0,0
zdonotdeletethis,16,0,0,0
zorples,7,0,0,0
zorples2,7,0,0,0
zorples3,7,0,0,0
